192189 781334 509
790162 450193 509
560186 608994 434
149786 415714 449
816496 942508 525
929779 69323 525
4734 991790 525
572076 442934 470
679414 972030 525
266425 976615 525
489849 874729 525
992194 496681 525
414823 640837 509
544225 525124 408
321282 141551 443
61325 417199 449
692597 166967 509
176349 778684 509
63201 183027 383
190535 362855 443
585927 784922 509
433310 836312 509
352641 483092 449
480703 154580 449
57698 781562 509
869162 117569 525
857473 110417 525
804308 762196 468
463775 7990 449
733349 814866 468
638919 696435 442
293790 29672 443
391755 345539 441
676200 355466 509
596279 71065 470
113311 163622 383
414950 478941 444
299103 370855 441
14291 459252 449
919022 528060 525
417836 395562 449
742148 97651 509
224959 407108 443
575176 122721 470
65366 189311 383
486853 75557 449
453270 346455 449
996811 611869 525
228554 715934 509
722665 935959 525
123315 477139 449
33480 790522 509
437034 431578 387
160544 238071 443
510760 819877 509
400617 360504 436
310864 382900 441
22129 563818 470
452239 687515 509
975155 765829 525
426249 800908 509
400786 961949 525
608440 731988 509
875995 282211 525
421213 357586 449
307487 923804 525
548322 421419 470
738236 835434 468
712144 634823 504
774097 323777 509
512191 24622 470
376005 957534 525
154798 396212 443
542536 59631 470
253856 789208 509
86600 440443 449
310013 254564 407
584692 282777 470
505264 219477 449
49253 914146 525
205958 872918 525
398089 569949 470
630576 90420 509
836435 822749 419
229639 328217 443
675843 682576 385
995536 559749 525
429263 775496 509
419814 729667 509
460845 28009 449
847611 486515 525
295998 186176 443
298890 910275 525
694122 571728 509
72459 135054 354
977236 796558 525
217728 202940 386
777464 232125 509
598669 867297 525
641332 792067 504
634265 128263 509
211256 84466 383
430464 450062 400
565170 765064 509
465091 307188 449
16108 466874 449
77203 709729 509
847983 764054 525
806395 579070 509
569574 29670 470
707522 544034 509
628444 690687 442
892840 521326 525
108354 528230 470
504319 874672 525
916461 763103 525
408682 316233 441
68293 718656 509
80633 312625 443
695039 506442 509
844885 94923 525
986330 719714 525
177893 563459 470
151693 704854 509
230582 686826 509
104394 914360 525
745476 283210 509
574545 288787 470
457621 433359 400
399910 831202 509
984014 961186 458
391536 272360 441
632862 83441 509
626117 59921 470
978920 849882 507
39322 745134 509
547568 174033 470
631438 747676 504
592960 989803 525
658108 25031 509
610414 922489 525
13960 495663 449
879713 145739 525
401684 219894 443
398879 731210 509
573767 38607 470
441239 682162 509
35880 150051 375
335372 868078 525
469484 42113 449
705781 677705 504
63447 247599 443
755613 900767 525
824611 764585 468
154999 256251 443
866704 107940 525
762738 9981 509
66340 936318 525
711386 541944 509
641106 739123 504
607318 944911 525
480214 724898 509
871286 690937 525
407211 825536 509
26275 879765 525
172944 859424 525
359984 508638 449
594401 586937 403
476128 381950 449
123938 39594 354
451446 133676 449
906776 525601 525
420510 237373 449
747883 189908 509
835316 582691 509
346130 934052 525
616925 28325 470
796895 419832 509
996926 746091 525
640478 695523 442
933041 631095 525
81395 328235 443
623640 971526 525
887232 208790 525
965184 90684 525
504206 423151 444
483238 456388 444
750104 75865 509
179884 821068 509
365884 671918 509
760609 812160 468
850856 515877 525
630378 140312 509
593130 309182 470
360250 178716 443
422727 278356 449
53337 660515 509
473858 367044 449
703311 594330 509
439990 625502 470
437643 110398 449
655627 134519 509
55784 882577 525
541411 116157 470
617970 817837 509
723828 473823 509
632220 325843 509
310360 349052 441
572925 408975 470
613935 403753 470
115312 8497 354
226465 369783 443
875204 328273 525
658730 947323 525
370947 306083 441
34313 583697 470
375443 856254 525
165264 56150 383
33110 27278 285
980390 105464 525
769765 198856 509
840645 471340 525
135009 913810 525
