814344 746587
873808 130314
496207 925655
117008 286273
405749 910162
374772 195578
891504 383160
544060 342140
886047 61055
899153 747524
260897 55460
83472 610626
936036 840623
764836 632907
300421 262148
146611 725584
525178 249517
343090 95849
397812 750753
118208 558448
101225 350568
796332 69745
782504 38601
800871 631279
57900 987354
89982 977635
55284 293341
409928 604774
323902 807391
888035 712365
595408 569849
23670 341712
22226 929812
112954 39815
93059 545593
334150 526639
688146 472979
972606 459514
711902 114691
445068 818311
946999 842819
488858 358975
726352 997244
144814 335805
918666 394297
765620 982347
831050 34458
884730 890719
782280 563624
143997 873423
214373 164963
33881 315207
810 821331
665402 320395
71680 558653
760750 393630
498756 230281
469257 976722
557016 412031
785149 244855
893114 496210
686747 989241
414568 622381
896876 856282
598278 85059
349815 826965
2160 955986
43864 596056
947060 155720
148408 110090
761441 581929
894114 590191
696567 631268
306883 771290
269314 722919
353315 78153
176171 205508
428356 690960
936371 79082
358434 21373
192098 206703
544810 965642
255765 36653
251690 586768
681657 96495
106269 703544
73670 206988
496854 3978
748267 478211
800846 283932
163428 830104
966563 382134
374235 20608
442209 420154
110564 516070
186635 632119
385590 162468
130020 417864
234250 898550
253150 949678
615956 539197
451407 455017
639279 607937
453287 988118
436005 622926
381799 728832
138394 549720
551023 13829
409989 844924
964779 297035
726773 30050
170854 628586
451476 30802
159794 249120
268961 896603
402470 782115
711170 183120
174544 151288
986959 735377
851608 5901
454053 684613
941287 589850
985093 343849
488239 159214
912533 98598
997113 289961
888379 143455
752342 118417
982854 869385
937611 32089
790046 659661
546236 133622
325394 622755
397169 673837
316078 562835
980477 486084
483189 42923
9582 988490
394745 194105
82966 944915
97266 706678
743940 67246
755139 681465
748137 675277
771014 206392
472728 421225
717023 936570
721916 183310
412760 450446
662981 576709
148849 567511
450479 377940
173518 425944
359973 450707
911304 465086
593165 559608
833088 824863
880698 561409
466712 838148
720191 311519
508005 401869
946320 530138
704353 929745
185914 307695
638095 16980
788088 755687
738608 634704
217098 793149
785490 910305
415497 66127
394973 512750
111508 578323
449385 877534
603132 810246
539380 759110
72741 756608
736061 383917
345795 97665
987338 728429
469679 324890
979129 277756
301762 170454
231717 327792
62261 919152
653716 477880
863450 832583
527422 393454
750785 390282
727794 710843
720289 452876
289812 857034
152679 706635
183843 132058
147524 221330
623456 549719
995326 373839
360891 938213
105424 712423
978179 288500
989001 809698
693142 102863
563632 160773
269752 727911
954990 315174
183465 175884
862988 360742
332498 343130
444879 774882
714269 487444
515305 834640
2071 903064
798856 542990
413410 792448
308349 971443
429749 395174
704845 75611
566066 6724
843282 155199
12187 116247
868696 52436
542345 487444
28102 752328
464805 44966
649902 7753
965578 988467
963493 871572
552911 852412
769768 409409
864816 691878
114570 208766
887555 344431
977805 326195
777989 645958
809455 558055
804029 891861
