965185 869961
558422 464448
227582 150257
481383 490877
981994 255124
751771 582157
649983 196424
128296 287910
917826 306616
95591 998252
289525 987247
415630 526799
487253 315093
778324 609870
878382 425859
22527 871793
174937 835014
69060 218883
843076 655250
400234 290657
879487 958452
588444 994033
101824 355431
332154 278694
839410 825163
755097 186101
263481 730248
135796 620800
550639 588370
857249 94947
722582 936139
310857 107353
264447 685349
54700 557205
61326 321044
540917 706726
213841 341171
343717 32350
307830 318224
47537 52765
906247 592205
210005 274617
781786 515944
960660 454209
798530 80678
154048 375022
791360 154307
593504 174413
600780 361246
623052 418056
692122 670436
166414 475721
505231 939657
853545 91295
297870 322049
524569 426944
890250 335494
961922 607392
589473 651809
449540 787936
868753 236201
516514 812345
567095 899514
867939 306744
40940 437185
891498 787552
361037 41276
622644 87098
973116 932679
430 644697
584195 476934
205501 286164
632796 454424
611461 830796
112822 288414
212476 497221
136816 277561
794037 507733
329433 27702
375692 724043
262255 908431
196199 856434
407037 913142
659472 940272
952493 676920
121142 497810
64369 750759
920008 514800
322767 862551
993539 186697
777886 540554
904692 653816
118200 87556
210177 721254
156226 322324
364306 55317
812834 502603
125265 93622
776933 620515
651640 43781
786690 222646
779874 624190
552450 512784
730647 530386
691 758926
901302 802669
144182 746698
681905 4858
72830 858400
641089 441681
831878 286680
439542 655697
230809 703556
997115 481870
636955 875623
242802 76457
950193 462934
178471 750136
513564 989536
504498 516475
593940 308225
489581 852324
603370 358707
194914 470352
13502 193630
194405 949889
58125 757728
923777 132237
245165 213501
993042 388929
529303 457249
779141 924415
344707 59242
109718 227033
26802 924840
333309 290474
412752 345871
145339 126339
967671 164774
553093 623353
882519 269893
137067 588206
980640 992479
50215 882172
361859 573276
681878 483831
545591 115269
794944 703741
552026 982303
608578 833819
54843 185444
398508 565468
767673 642243
587027 348922
685822 259367
594616 711649
575288 981523
188623 205096
540579 431516
464451 379696
417114 905463
263505 417
642208 575423
362476 357209
924119 818914
686582 786344
996467 666401
89118 119929
655066 749471
548113 844996
331199 253800
514976 680944
844898 60022
342688 619823
181371 348110
750921 793207
534584 107640
38928 103280
230194 585011
748772 33541
653887 585358
263497 40743
642904 69185
642829 472721
510293 773173
57960 357479
863381 927078
72137 660164
605806 426453
222393 258592
13595 101283
277747 951719
977962 140799
110337 414334
123774 774408
897423 949554
966233 243377
802637 198710
648594 469637
571195 697712
605879 913843
319804 121424
213004 69251
183430 667488
917599 661743
348681 649907
396753 341963
841978 309171
613084 47707
969786 255598
785649 223708
667855 412239
390382 253389
687249 221900
375842 909330
226190 435139
571211 163582
684454 678720
211755 52184
485607 778520
767330 146665
294608 160753
884076 903759
715631 209098
617732 88587
309191 839563
709131 922370
20413 81082
477803 899809
727139 348882
271464 191925
251178 667859
863969 10174
84098 213277
628340 833983
570826 564591
622679 63654
909558 214957
316378 56355
998198 880548
