788337 471388 509
679197 563999 509
748546 376194 509
454527 613977 470
886463 478470 525
399405 362262 436
807929 661670 504
497401 101846 449
882463 651922 525
515470 236603 470
186515 852273 525
307179 587609 470
37667 326629 443
138900 700091 509
945584 682298 525
59641 747742 509
152692 274108 443
54732 319029 443
894102 86450 525
663843 84681 509
46906 905300 525
816783 878805 525
282681 188793 443
115972 278394 443
863498 901995 445
462312 156248 449
490 738398 509
609744 28349 470
23503 338830 443
46119 605910 470
183355 355286 443
553169 157904 470
601762 306897 470
264255 449905 449
20542 58073 340
715780 244414 509
968994 336828 525
36972 951038 525
700738 721153 504
880178 913340 476
577978 697376 509
524649 968764 525
436899 376436 449
479083 54094 449
375870 851150 525
790158 552168 509
504445 454464 444
76351 424192 449
579412 985286 525
563640 833622 509
546643 644126 509
399335 30755 443
955831 966704 414
317485 991491 525
256654 606013 470
993367 240841 525
231199 563903 470
83845 101473 341
305465 325189 384
517170 744937 509
68067 728510 509
250140 19872 443
836703 802167 450
196987 242251 443
278608 525542 470
233397 238152 381
991630 768648 525
507835 358545 449
14273 430865 449
32761 839321 525
860830 74714 525
216502 307594 443
46182 264169 443
282714 381815 441
817690 899616 525
64928 588905 470
241918 77711 443
769192 336788 509
850139 51784 525
162460 338414 443
498411 781758 509
451246 843836 525
621191 640842 509
664921 705921 504
805876 221572 509
927440 242591 525
86967 9518 351
338974 404197 441
377735 528721 470
457764 232550 449
121063 440800 449
585329 485215 470
354270 172262 443
97608 987895 525
857411 382934 525
1590 275256 443
987748 722653 525
622291 376946 470
40635 817473 509
548632 150498 470
536483 191018 470
904601 49199 525
532262 849544 525
376664 802429 509
394207 372681 436
766063 144935 509
311886 778910 509
736565 407889 509
888528 874045 445
825436 437907 509
600091 831559 509
232609 513527 470
987187 892470 507
969272 118662 525
276437 559126 470
911913 214063 525
96668 952775 525
490971 806444 509
765452 143301 509
502845 274974 449
599614 460607 470
998873 241353 525
235873 604823 470
105619 966108 525
109634 706750 509
279909 286706 376
415578 850305 525
340909 146873 443
756115 437924 509
114938 191011 383
858224 840736 419
891151 199324 525
814870 16629 509
76392 653 340
537924 85752 470
942798 625930 525
613176 30978 470
816374 242358 509
111347 459848 449
229790 990724 525
136072 864660 525
489118 673254 509
352931 65221 443
564203 549991 421
857966 805982 525
824058 545356 509
579379 820485 509
223900 55612 386
169591 469229 449
642480 866315 525
27657 208848 383
639951 598144 509
447155 80636 449
585063 45431 470
554005 489748 470
250923 377030 441
856322 789218 525
303061 65322 443
216401 79082 386
565967 363005 470
949915 572789 525
385272 112125 443
658386 840341 525
755577 141034 509
900996 495854 525
716587 193007 509
932742 635457 525
83999 64828 351
100554 275707 443
767929 418516 509
774035 834271 468
243514 700824 509
792192 258130 509
491730 731475 509
139129 462380 449
968701 663981 525
312712 898045 525
562640 698090 509
998299 460127 525
47133 628069 509
294596 83630 443
598997 160935 470
555404 731168 509
420118 395895 449
107803 464712 449
437254 579518 470
585356 953013 525
105055 695683 509
557677 660839 509
735034 843193 525
244666 106499 443
850928 939166 476
43960 631328 509
529547 268696 470
516975 112740 470
751005 480461 509
197843 229190 386
750218 903255 525
171218 212309 373
406700 796403 509
750656 384808 509
674226 272559 509
868714 585118 525
836076 590694 509
142110 897416 525
278270 593619 470
380058 878522 525
26258 53686 340
661312 418980 509
583013 447445 470
957990 594178 525
672563 951060 525
47107 995724 525
183816 633601 509
363938 815513 509
842783 531596 525
275837 182515 443
950096 816944 525
405374 807924 509
972263 978696 383
296943 860320 525
180612 381928 443
916049 117975 525
845147 467689 525
657988 940805 525
188443 720398 509
430216 78921 449
62745 191024 383
758973 12842 509
783722 224157 509
422959 720704 509
978406 284523 525
266558 551411 470
891113 202756 525
393205 209075 443
71313 57953 335
694313 392951 509
667983 453163 509
851152 236957 525
369102 284404 441
212030 232699 443
620506 682135 509
916349 565097 525
892166 937022 476
783535 296012 509
47221 628207 509
643590 87589 509
689373 470440 509
153555 242941 443
661543 486672 509
