479592 978223
141825 671165
402046 730282
111875 954940
416515 965624
428967 626553
377026 789722
251014 470443
7256 732245
406271 617896
401481 660271
579141 979096
302614 818548
88278 500055
18484 174833
524508 531266
70398 966325
369757 479689
121795 610258
71273 929375
21503 524540
232712 752581
173807 700293
45455 771719
150882 186974
215902 434231
321657 493105
731838 743765
84665 425127
806610 998953
11313 539397
189184 908394
322085 552636
264512 560180
221445 728757
276751 487984
21268 823253
38910 740885
119113 810922
266207 733316
151531 743821
89027 917988
96049 120259
434614 625271
628403 657583
493544 689939
943415 968020
450743 609780
580226 590150
952106 997891
60737 334866
108333 439592
364076 604121
51696 559439
285579 749877
923061 928209
516027 521700
631157 955398
345337 997668
710940 985409
384095 856835
307987 542633
10302 203247
193580 494991
339570 625423
352427 863350
738026 909127
39940 701841
145300 441448
196751 468182
145092 945123
376727 780370
114216 992451
421865 614531
485333 724077
54639 369654
327579 907465
586699 776367
448635 787018
19657 758202
145952 541819
308646 728317
110216 872329
144765 382506
250047 658671
136306 935647
30519 150852
13183 393650
192007 329517
549402 913282
100573 237495
762588 839857
329719 619435
17293 618154
407036 813694
111905 513835
256832 652231
48274 110507
101164 240667
507873 570969
223136 418310
641754 673435
73852 501794
47172 421622
547241 607880
98614 108629
519437 958778
690444 849638
27662 134586
274930 654531
548691 553272
12165 334240
139869 874145
208432 301274
556102 868959
306757 837468
681339 827909
879041 973353
77219 930758
276596 941335
516613 569781
382347 525076
205065 312542
765619 914404
311822 686342
214833 843514
855973 949346
550383 947395
248099 403470
190670 888269
871305 960121
312488 678400
265387 956276
568815 801081
309498 827437
603505 953539
348329 593993
57549 535600
568285 620635
275459 568178
484114 649273
725431 806024
370963 733948
780228 802597
17873 262911
721743 842830
535133 698928
41884 353597
251664 364775
222084 724711
606886 987793
302439 588210
273607 573878
438661 448795
469206 797561
424099 518829
72924 728597
563246 812957
629992 713970
509386 567511
146217 438519
347266 673553
202737 962844
740975 903825
186276 936827
30352 548502
585561 704873
33950 709560
395742 796016
565002 698751
697699 994026
404301 569116
118151 764511
59530 237310
134077 365550
654067 712165
84463 789216
138017 162294
74835 533212
601431 985064
826627 908362
737207 890247
96473 340395
316344 479429
575009 923660
10915 431485
101786 711566
464514 703006
8407 635336
456869 650069
176605 653545
544692 976141
135005 678007
374488 392260
401313 972712
77675 544017
501391 975805
396580 476099
37249 523386
228331 543955
117564 539818
89439 442783
80606 945127
40124 549314
775328 938934
115101 431517
176526 358648
693463 793265
101187 651426
262855 555694
416169 689597
538325 617108
72100 79591
157719 256500
131341 997276
20471 874071
395797 863189
795158 973791
198118 926872
666830 862954
123575 819967
662374 834266
504238 936154
215286 974963
165242 623085
22686 719200
802804 879743
691502 802431
19939 321636
912813 944611
416896 998183
396447 711486
62567 998413
256923 801620
619823 793769
170157 500647
541240 616614
480344 603670
402602 929534
318921 744515
577568 636737
576650 925603
40838 370703
518212 594120
150385 334434
79617 410671
687937 827032
39200 535571
611257 638005
72001 432745
