508217 508216
3999 4000
834380 834381
270783 270784
839632 839633
11965 11966
51667 51668
697999 697998
230221 230222
104003 104002
730251 730252
929393 929392
370362 370361
214819 214820
18539 18540
984058 984059
650697 650698
480245 480244
812416 812417
743843 743844
503027 503026
840073 840074
68462 68463
41320 41319
169573 169574
890493 890492
104931 104930
634929 634930
157002 157001
484777 484778
213471 213470
899528 899529
670128 670129
757989 757990
758659 758658
620321 620320
8473 8472
144349 144348
217628 217627
354097 354096
898067 898066
903626 903627
672652 672651
742278 742277
229346 229347
640702 640701
89494 89495
859721 859722
819402 819401
795168 795167
628980 628981
112415 112414
171671 171672
463739 463738
567337 567336
685055 685056
90866 90867
570348 570349
133201 133202
737957 737956
698070 698069
915686 915685
666583 666584
330577 330578
342999 342998
572734 572735
963800 963799
564389 564390
300718 300717
6889 6890
44267 44268
365278 365277
408596 408597
860790 860789
797438 797437
694711 694711
29106 29106
659854 659854
204430 204430
934948 934948
174527 174527
623774 623774
58371 58371
128968 128968
66567 66567
791317 791317
124735 124735
872374 872374
656146 656146
51373 51373
660763 660763
286115 286115
232687 232687
987092 987092
280756 280756
136002 136002
975653 975653
814266 814266
579631 579631
311222 311222
155060 155060
928463 928463
997387 997387
74200 74200
178087 178087
404496 404496
914775 914775
587375 587375
212747 212747
796245 796245
644787 644787
322639 322639
437540 437540
981959 981959
301562 301562
791852 791852
376198 376198
360868 360868
992205 992205
874756 874756
864845 864845
285997 285997
797599 797599
523211 523211
1 999999
461735 903993
405907 934809
747858 941586
997838 960675
87401 986228
952758 933378
568805 919052
949077 816845
951113 11773
902217 524331
689917 911783
985062 124099
183047 980350
926343 420874
604870 944371
273732 933140
915055 296546
67072 910299
943866 905485
934813 13766
962814 850536
967663 85838
977115 986466
960916 668715
160984 900017
312040 984449
332088 900594
495782 971288
214160 936425
876394 920121
838967 962882
979696 415512
926681 17493
972846 482429
907151 267894
926848 350961
980122 822174
957631 970128
952825 323256
933832 591721
926124 132122
708211 987325
612366 976616
763549 982100
989273 478328
294020 953253
960352 306179
983247 94161
993359 363320
62019 925646
222482 102514
275881 141810
170891 117820
685334 472363
572764 556481
206042 472673
372504 774994
909251 632450
262529 173302
697599 647473
309025 403574
291423 773699
673160 884176
927768 350696
266834 369094
734043 463879
149840 751776
64941 496867
810906 200969
292105 480319
456081 920337
702976 913702
230648 80375
549997 695585
17939 363567
507109 940397
324519 384389
424860 153173
717816 861761
869799 886731
38390 391527
482611 120553
111756 815428
907000 556519
311274 510715
749730 556923
860776 50633
312202 973574
547843 75031
522710 581880
71192 30551
965558 631841
137419 644236
323818 246653
699759 630411
44403 319837
480551 735542
738222 227225
71021 65909
44144 407423
582912 660409
345267 28323
176039 15891
73733 296228
654802 753307
409527 234804
952460 435104
908780 767506
798815 289256
197171 12355
272977 224188
747191 196831
278863 479039
113538 80670
61067 194968
945263 31213
847598 349658
465228 335268
779211 150781
277475 881348
615043 539734
644034 322567
299057 343727
689156 908033
534286 277070
872009 336823
808723 672158
560474 709865
793727 739573
681207 417915
403463 655432
235468 194442
576040 283770
118139 519606
189078 161786
956677 362126
47453 49748
519332 729180
467705 438632
783386 106491
724773 655426
100959 139358
515597 222888
310011 402935
975354 884218
938680 246180
378598 272550
613933 367391
571683 189120
684288 570166
787780 648488
858198 363270
269456 849767
495626 346014
17734 722205
573026 666969
723072 951306
143964 179813
865145 504920
951138 555641
200534 144070
938725 48062
885997 78855
333370 199576
416335 719412
469197 555706
970338 279414
101942 465552
606921 535712
953580 691421
794053 913580
842156 950799
109109 274142
899307 118836
378078 183350
