508217 508216 134
3999 4000 189
834380 834381 83
270783 270784 270
839632 839633 158
11965 11966 51
51667 51668 172
697999 697998 243
230221 230222 200
104003 104002 54
730251 730252 62
929393 929392 202
370362 370361 180
214819 214820 99
18539 18540 155
984058 984059 122
650697 650698 186
480245 480244 170
812416 812417 207
743843 743844 119
503027 503026 152
840073 840074 207
68462 68463 162
41320 41319 120
169573 169574 60
890493 890492 158
104931 104930 111
634929 634930 155
157002 157001 171
484777 484778 201
213471 213470 156
899528 899529 140
670128 670129 93
757989 757990 225
758659 758658 88
620321 620320 173
8473 8472 58
144349 144348 44
217628 217627 187
354097 354096 167
898067 898066 189
903626 903627 140
672652 672651 248
742278 742277 137
229346 229347 107
640702 640701 186
89494 89495 116
859721 859722 220
819402 819401 176
795168 795167 163
628980 628981 142
112415 112414 111
171671 171672 52
463739 463738 201
567337 567336 359
685055 685056 217
90866 90867 147
570348 570349 377
133201 133202 101
737957 737956 168
698070 698069 168
915686 915685 202
666583 666584 261
330577 330578 216
342999 342998 136
572734 572735 129
963800 963799 122
564389 564390 129
300718 300717 71
6889 6890 182
44267 44268 102
365278 365277 167
408596 408597 162
860790 860789 220
797438 797437 194
694711 694711 111
29106 29106 73
659854 659854 98
204430 204430 205
934948 934948 171
174527 174527 135
623774 623774 204
58371 58371 123
128968 128968 101
66567 66567 56
791317 791317 163
124735 124735 119
872374 872374 158
656146 656146 186
51373 51373 66
660763 660763 173
286115 286115 159
232687 232687 138
987092 987092 140
280756 280756 208
136002 136002 207
975653 975653 140
814266 814266 101
579631 579631 134
311222 311222 172
155060 155060 65
928463 928463 114
997387 997387 215
74200 74200 157
178087 178087 285
404496 404496 131
914775 914775 140
587375 587375 129
212747 212747 187
796245 796245 145
644787 644787 217
322639 322639 92
437540 437540 69
981959 981959 184
301562 301562 141
791852 791852 101
376198 376198 136
360868 360868 74
992205 992205 140
874756 874756 70
864845 864845 96
285997 285997 146
797599 797599 238
523211 523211 103
1 999999 525
461735 903993 525
405907 934809 525
747858 941586 525
997838 960675 458
87401 986228 525
952758 933378 507
568805 919052 525
949077 816845 525
951113 11773 525
902217 524331 525
689917 911783 525
985062 124099 525
183047 980350 525
926343 420874 525
604870 944371 525
273732 933140 525
915055 296546 525
67072 910299 525
943866 905485 507
934813 13766 525
962814 850536 507
967663 85838 525
977115 986466 427
960916 668715 525
160984 900017 525
312040 984449 525
332088 900594 525
495782 971288 525
214160 936425 525
876394 920121 476
838967 962882 507
979696 415512 525
926681 17493 525
972846 482429 525
907151 267894 525
926848 350961 525
980122 822174 525
957631 970128 414
952825 323256 525
933832 591721 525
926124 132122 525
708211 987325 525
612366 976616 525
763549 982100 525
989273 478328 525
294020 953253 525
960352 306179 525
983247 94161 525
993359 363320 525
62019 925646 525
222482 102514 386
275881 141810 443
170891 117820 383
685334 472363 509
572764 556481 421
206042 472673 449
372504 774994 509
909251 632450 525
262529 173302 443
697599 647473 442
309025 403574 441
291423 773699 509
673160 884176 525
927768 350696 525
266834 369094 441
734043 463879 509
149840 751776 509
64941 496867 449
810906 200969 509
292105 480319 449
456081 920337 525
702976 913702 525
230648 80375 443
549997 695585 509
17939 363567 443
507109 940397 525
324519 384389 441
424860 153173 449
717816 861761 525
869799 886731 432
38390 391527 443
482611 120553 449
111756 815428 509
907000 556519 525
311274 510715 449
749730 556923 509
860776 50633 525
312202 973574 525
547843 75031 470
522710 581880 452
71192 30551 340
965558 631841 525
137419 644236 509
323818 246653 407
699759 630411 442
44403 319837 443
480551 735542 509
738222 227225 509
71021 65909 312
44144 407423 443
582912 660409 509
345267 28323 443
176039 15891 383
73733 296228 443
654802 753307 504
409527 234804 441
952460 435104 525
908780 767506 525
798815 289256 509
197171 12355 383
272977 224188 443
747191 196831 509
278863 479039 449
113538 80670 354
61067 194968 383
945263 31213 525
847598 349658 525
465228 335268 449
779211 150781 509
277475 881348 525
615043 539734 452
644034 322567 509
299057 343727 384
689156 908033 525
534286 277070 470
872009 336823 525
808723 672158 504
560474 709865 509
793727 739573 468
681207 417915 509
403463 655432 509
235468 194442 443
576040 283770 470
118139 519606 470
189078 161786 365
956677 362126 525
47453 49748 296
519332 729180 509
467705 438632 444
783386 106491 509
724773 655426 504
100959 139358 354
515597 222888 470
310011 402935 441
975354 884218 507
938680 246180 525
378598 272550 441
613933 367391 470
571683 189120 470
684288 570166 509
787780 648488 504
858198 363270 525
269456 849767 525
495626 346014 449
17734 722205 509
573026 666969 509
723072 951306 525
143964 179813 383
865145 504920 525
951138 555641 525
200534 144070 383
938725 48062 525
885997 78855 525
333370 199576 443
416335 719412 509
469197 555706 470
970338 279414 525
101942 465552 449
606921 535712 452
953580 691421 525
794053 913580 525
842156 950799 507
109109 274142 443
899307 118836 525
378078 183350 443
