69691 615798 470
193664 597452 470
21166 365313 443
409811 433238 449
134123 465127 449
32503 315048 443
443078 686567 509
5171 785693 509
303643 512934 470
9277 15606 276
21881 27324 308
989786 330745 525
976661 912674 507
215807 758504 509
13344 953379 525
810587 665504 504
594238 714340 509
201728 522184 470
232356 556981 470
279562 242633 407
343118 475025 449
350190 4515 443
224393 155251 386
90910 378221 443
133093 887531 525
194410 70984 383
766790 720633 424
910626 989795 507
392241 822265 509
83252 757065 509
342464 82536 443
715103 419868 509
22480 424487 449
755091 29713 509
918452 851698 476
192181 959339 525
917857 509861 525
166606 59344 383
412236 875317 525
462186 738044 509
462467 757842 509
790845 841708 525
422254 559817 470
873335 629112 525
988873 32098 525
806814 657378 504
810418 643520 504
880640 648259 525
68490 942436 525
215045 262955 443
916506 275743 525
90825 775432 509
116778 440049 449
322120 621388 470
381368 617793 470
278246 114625 443
738785 381764 509
869059 45990 525
427672 226750 449
523810 880719 525
884797 661918 525
522259 829507 509
551309 673921 509
388277 191886 443
807200 837434 450
628853 114925 509
763601 768561 468
137427 235137 443
98914 206323 383
617103 628005 509
131361 385189 443
980056 291095 525
637351 513283 509
895350 857509 445
450005 947460 525
856328 642922 525
874773 788664 525
262584 264352 407
385456 105268 443
829655 518079 509
451030 807711 509
847924 109366 525
529114 470913 470
877125 529362 525
335823 394008 441
489122 676338 509
682863 46765 509
611904 489748 470
205671 483510 449
446150 696648 509
632414 692934 442
164268 46180 383
477721 247693 449
981053 103805 525
177977 66955 383
77078 48943 351
903204 742947 525
689770 798961 504
607722 571774 434
962592 43319 525
712586 545440 509
522370 918865 525
810599 717189 468
778162 306710 509
510677 889406 525
789080 213330 509
766957 311707 509
299640 160540 443
407704 129278 443
411262 796878 509
317917 325092 384
2001 3000 217
3001 5555 238
300 6000 238
80001 100000 333
1 1000 179
342248 174339 443
517728 725816 509
521946 295940 470
286698 121799 443
690347 316373 509
893439 347813 525
117322 664428 509
98979 654736 509
501138 713762 509
538544 691778 509
623386 165172 470
129088 590149 470
524895 148207 470
639952 485863 509
777395 838943 525
244774 642535 509
558379 369348 470
762711 597970 509
542740 6854 470
117288 370435 443
139909 727575 509
269061 477023 449
237173 934443 525
738624 706537 424
443006 914944 525
82112 507786 449
350285 361619 410
302372 663505 509
459792 837428 509
185417 333396 443
600145 246039 470
744648 457435 509
807937 48895 509
674156 344572 509
29291 451628 449
722551 590924 509
215120 806145 509
639795 596429 509
425938 416448 418
296943 185732 443
340118 73144 443
809465 802114 406
15919 999989 525
277216 805599 509
900091 203589 525
223467 995910 525
528841 910828 525
802378 296039 509
760346 923587 525
454518 948519 525
730188 786991 468
604533 145751 470
66831 2907 340
958240 424552 525
400585 47969 443
948007 404527 525
600014 789325 509
256541 54446 443
351734 489909 449
177386 336129 443
183406 585618 470
763994 562811 509
903853 904037 295
359287 559417 470
393414 545389 470
325786 462564 449
138420 832793 509
465176 583828 470
547427 30580 470
414533 561927 470
370909 925964 525
590244 121461 470
978915 95408 525
130158 173714 383
364180 999454 525
21682 464841 449
10295 967439 525
255305 112160 443
724485 562606 509
916141 43675 525
973069 983065 427
290722 974388 525
477412 664121 509
105376 752465 509
282277 438400 449
