755979 561169
956360 296197
687671 664389
396713 552907
659448 755438
790418 974453
555758 720175
367022 120727
373425 700680
575714 332444
417983 386372
781654 5615
123162 614386
721555 205979
519886 865179
652846 43816
512941 121793
3889 313019
460257 846680
416287 486531
974643 867200
761083 95160
789751 226043
211058 703483
162071 917185
203329 252020
708181 609530
576125 456570
874313 542431
70237 566578
842024 498985
7558 137997
163359 561213
198952 491093
903375 143654
823650 797200
246119 300169
578585 403480
572111 739439
138770 67939
449050 486980
567540 210541
234724 129914
206391 333606
204981 656695
116537 279863
954015 393651
277582 521767
77066 634670
914084 20285
237672 314743
364572 41280
219765 654286
120880 750904
413631 162229
929494 52189
976220 42705
767187 609286
4795 447652
547018 201204
40583 288733
625225 939328
457288 170075
481455 705225
420461 553495
218870 62041
543028 918526
519185 643338
218564 19009
136729 157127
7712 399721
64179 922153
447893 8979
254827 626604
717395 507041
866529 758156
612445 887670
459892 258540
315740 862121
39995 841849
976766 534383
904845 300586
511440 827742
942159 456726
364242 559972
178783 976682
121033 237809
439353 978122
149799 327373
553521 446064
551513 879197
487269 512699
204235 77511
518826 613706
23517 481410
342763 497251
662698 597584
556345 997692
835663 132638
180766 500388
660267 85427
442133 109424
275111 838040
962988 47991
657261 45077
284460 854516
74474 26278
981054 187903
535824 416982
74499 715223
240219 546325
549485 761899
751280 575311
304360 554141
376528 29112
204369 860658
126851 616634
525885 239327
305840 244749
907601 358997
237328 942754
617296 211145
535638 402143
675561 634573
533916 937796
211713 624721
88612 788763
887844 395366
592809 537038
776934 510186
96605 143219
712191 495093
969313 258787
9526 46176
417223 810854
266691 553775
946476 635271
282864 593840
388450 563302
556747 649958
425350 186838
473188 169606
66902 369168
282020 98054
832015 141503
436624 269817
775267 966983
300186 9098
195698 407818
756949 973160
233176 654595
267066 493703
1046 447352
703636 431575
421791 533547
123780 483727
91285 368480
454012 365582
632000 636162
970505 106789
115549 303942
293547 317355
686823 59463
886568 909874
65373 696552
486268 994014
144246 422212
605397 949061
168248 929022
664372 706689
949483 950138
775405 446530
271252 249739
534797 368702
570395 560686
554954 835691
646802 422632
854050 56409
971520 352177
765681 405832
692318 805522
424685 923707
892225 576511
740314 42582
364191 921434
67351 826839
980270 510487
291416 194363
678307 2435
925833 526282
19585 623305
911801 482505
197988 898481
488645 744026
871819 245069
118425 737192
875866 97720
752470 522115
454325 75087
101008 413785
516748 22179
961628 20988
133936 216208
34514 532227
90347 963420
559871 48399
419173 9579
982855 381599
251722 958205
358695 904645
443505 856327
960852 562657
113428 944265
100809 40334
11590 512015
416725 605036
575128 901114
770986 244489
895000 708362
204180 364908
511656 637673
85572 660247
91273 302790
577340 470177
277110 604356
587872 680658
642082 582457
722423 344981
191628 44685
636206 570883
328213 644567
653927 596868
503065 125902
497488 206763
465660 490343
506259 632707
599312 771845
343623 730244
573568 482113
326465 845203
911070 972039
817249 738236
310212 172133
451293 66130
963783 125767
410127 588597
291295 786583
650116 965194
408973 838394
416518 233595
963582 896951
513109 450501
574112 949172
243906 38620
471943 923415
698466 42656
