868186 862260
516842 219571
427733 848465
119871 404967
657923 205685
784386 198751
610922 494205
222557 902352
646596 381956
127067 217272
259781 262412
755983 357390
532607 381222
308412 100348
707691 34431
359328 170697
458380 699833
371436 771753
744034 271973
995545 723102
678403 99910
693046 349129
677635 548551
689647 377964
148064 870394
452931 512570
171110 551836
771355 964743
274332 230197
539935 285134
524942 504866
460985 703867
241123 374842
232034 373116
159114 888312
530665 531001
545517 776391
443719 993029
457982 888156
513658 979857
415673 108962
183244 261713
469024 366182
728899 411744
582915 963762
569815 299842
833814 582227
731288 227544
681480 250805
972876 507750
470061 572842
621548 803680
374295 380283
118474 342523
466640 112924
535950 76335
949566 938887
796248 602877
128341 465058
850859 472009
495280 213825
202531 539773
615278 158605
176450 281761
78137 955216
645376 860482
513634 246275
316409 268608
922761 270560
215212 413977
916158 558682
469691 688141
25611 898657
755256 729857
635539 659176
141743 619740
914209 72884
934404 78430
141980 806250
794637 992034
487941 72399
635581 124572
27250 655847
166120 929027
840820 523589
188850 385630
103507 509779
169265 780483
34624 916297
147062 508000
763156 783581
681309 730641
34411 296687
130186 551127
441365 495522
755640 446906
358358 355961
293121 694441
514793 296402
468586 882633
449831 18760
40543 491551
279488 903701
24935 185822
697305 739223
853381 896794
892505 445938
659011 882416
898110 301513
884298 730842
100371 996567
245666 128663
96222 999099
968653 660765
216096 426439
413999 358779
149101 2074
24432 795028
51702 4641
730466 439253
650222 279530
29887 519771
545741 547697
280325 400505
699099 818904
480444 394296
304339 47138
767564 72795
955368 974437
269220 528084
74315 407195
506332 409181
744012 939308
502796 671269
951538 147808
673587 711735
269149 611455
109004 554888
640000 301189
85581 148786
339428 817061
698165 719047
32808 150228
161356 792335
207466 306194
155647 978469
705705 562631
772090 38585
521489 385634
388921 800391
921592 372878
251594 664007
247137 870819
20745 493535
89724 894652
810683 135644
761815 293981
758924 207253
690196 866617
319281 641571
307979 348374
681163 89543
250104 235538
849050 923890
686906 90181
921218 4150
682456 986847
508 337775
631385 339205
965146 603928
385566 232052
231122 469060
132366 381933
426201 937621
25545 987026
181060 284675
236675 542916
682404 572865
967194 48370
621252 652744
364435 502501
22758 688476
625576 113897
571750 561273
377177 637741
47922 705665
852689 295496
908358 742643
981183 886706
777903 397752
34336 246574
711091 261652
756920 904732
242772 696989
605464 128894
367936 749289
515150 633043
307576 574849
86926 298046
802397 643318
882823 256379
922900 573701
582453 599524
544122 721681
488787 737489
424029 671105
626128 986362
928219 198443
290307 101818
47259 375873
330299 985746
423058 252825
710211 654546
149382 464105
38805 285384
93070 454212
495305 188096
500479 21131
828036 910581
848437 698796
486242 187340
812430 982956
460435 622935
214774 230609
188546 895526
947089 486298
828582 100574
46384 838195
198978 646928
882969 405926
856671 24615
674980 849620
930707 466809
454832 265067
356975 89271
865013 403265
633367 613317
570469 913084
606592 173499
896172 222018
116650 871135
600748 321180
275621 569602
665024 984536
807948 976601
276460 34414
417366 826178
311255 262154
302864 729950
819870 630564
173665 352332
911849 877726
814390 707317
909918 371570
275240 265764
873884 532928
458344 959330
303162 478851
388720 448276
208501 747037
274914 839759
416418 648273
496742 229811
132782 495864
404157 75896
320660 561734
875880 652974
475207 480158
993884 123385
532512 325732
734391 477825
696665 631
264298 215513
988168 182214
87985 131883
701508 50419
545791 180836
665444 350828
370883 661694
