973447 150121 525
203022 179402 365
308928 319573 384
292150 513738 470
619756 718653 509
342078 592756 470
331412 142391 443
594815 518260 452
107463 568581 470
613206 978637 525
286607 5807 443
116001 792481 509
810991 263285 509
519167 766460 509
699930 9151 509
868211 308908 525
659937 989308 525
66527 458951 449
325383 440260 449
961936 436258 525
420000 906990 525
917606 386529 525
527397 963779 525
562488 771779 509
576735 143464 470
26169 403321 443
122961 583287 470
537079 601670 452
773156 652596 504
846294 563018 525
890206 215425 525
729923 940549 525
515912 198129 470
247702 64529 443
19895 845143 525
223416 545909 470
549621 59200 470
746854 881229 525
8080 852792 525
949695 193375 525
936469 537961 525
45215 235886 443
917631 703867 525
21344 57321 340
828011 107139 509
710322 868636 525
580379 771523 509
2137 193717 383
88612 303597 443
376618 143681 443
107875 924158 525
689173 428099 509
479017 965458 525
14131 459401 449
895362 789665 525
714917 770899 468
569316 544033 452
753448 966332 525
747815 399853 509
14792 174558 383
519148 220052 470
887144 30806 525
349830 893645 525
195754 501831 449
569811 197083 470
571809 151817 470
13697 755257 509
231106 81562 443
604796 892122 525
708650 522901 509
561841 955160 525
350378 743562 509
281390 636725 509
480276 953085 525
178334 664684 509
772501 559227 509
603057 401335 470
839834 931865 476
841599 85195 525
639330 404686 509
885872 986237 507
119568 183257 383
97630 882682 525
2281 900462 525
688254 828282 504
471479 334642 449
141609 707637 509
22768 256671 443
156790 109172 383
631774 915138 525
641086 823621 504
286320 29544 443
507117 653495 509
78969 131296 354
452785 90276 449
63211 400701 443
353117 607347 470
18316 815453 509
752042 514974 509
131647 849269 525
501107 959748 525
815218 515747 509
564869 659250 509
443966 147509 449
331531 269986 407
751686 109877 509
841403 701247 525
24969 290707 443
892263 537312 525
343307 1507 443
516461 603538 452
880480 222105 525
968322 989971 458
62960 476808 449
944868 718662 525
521862 36302 470
223775 246869 443
736510 616559 509
278081 640858 509
657163 340506 509
224603 544074 470
284563 168219 443
92430 673553 509
413528 943156 525
424534 975655 525
605456 441097 470
605878 784732 509
388398 106583 443
735723 449884 509
100248 151129 375
101270 374223 443
284727 75464 443
960258 303415 525
407541 66023 443
449012 136040 449
886581 415616 525
621460 842792 525
312870 230449 443
810217 100797 509
438799 383909 449
988502 105244 525
442486 904010 525
586834 321060 470
994900 112580 525
583583 239540 470
35017 411394 449
464683 478831 413
651883 214126 509
645309 859124 525
547269 268623 470
731372 743511 424
364962 729846 509
226606 826761 509
688959 239588 509
582282 925077 525
33001 303475 443
154925 865639 525
350081 72752 443
712963 226116 509
942609 624126 525
236849 661748 509
868775 494820 525
955114 666734 525
982781 272098 525
718409 799852 468
593863 576200 434
611864 697930 509
977723 883802 507
868272 931677 476
95396 430429 449
301493 935911 525
500483 704616 509
703962 860181 525
118657 769455 509
212103 753276 509
258494 650714 509
873661 966991 507
53532 960790 525
98079 988515 525
436155 594051 470
875547 109613 525
764008 989658 525
412164 716239 509
61480 533626 470
609568 717489 509
634283 865709 525
891937 53689 525
705072 299894 509
102411 416424 449
966132 794988 525
399953 193669 443
341377 319450 384
235952 595509 470
25687 128268 354
595274 39369 470
633109 773294 504
460223 322356 449
805692 492911 509
675543 102559 509
56548 330853 443
825720 113411 509
129116 395776 443
796655 586692 509
241034 15412 443
915799 516387 525
622937 373655 470
388195 898105 525
67596 574976 470
276696 111488 443
802585 420390 509
941023 920408 507
6684 296376 443
951578 717265 525
493649 808861 509
11227 442824 449
423425 554082 470
307333 791140 509
224353 887384 525
196875 782177 509
339781 414505 449
