122414 174856
580850 445922
745761 81539
636810 845908
652482 815809
398603 996111
911829 504562
264651 532976
62355 62491
773294 650138
611669 96314
33704 511772
75365 33585
734986 760669
757453 11702
71673 761719
310598 372721
550072 246730
441622 105480
308850 638014
676355 49432
262565 185213
13372 630526
861001 880136
269698 752343
778838 88994
317202 259188
760595 875288
871082 492752
694316 963772
77635 319888
855869 850528
830710 452317
329305 335099
984612 93933
36257 837590
620949 171777
476143 296962
310114 532584
372424 312991
218924 693093
750493 214801
454522 119204
991016 585126
110493 974105
913258 967643
872449 300879
392473 669815
460371 267438
939837 459109
360255 546864
764991 995831
419713 819174
232876 128955
495872 585888
928047 580346
599449 296488
146714 28380
894446 72358
218361 809701
642275 853960
17023 700628
423508 905879
65049 797596
444917 909635
126689 219074
608361 979964
670004 79299
671272 124212
661536 423739
241491 38753
625650 897556
339282 999109
686867 546807
807807 299996
920202 942187
554131 641551
570951 472370
642469 185474
806360 703729
141958 839843
431762 47027
521201 934038
882896 205399
439542 97609
925330 39945
775902 430571
53855 358489
102547 728012
523661 71443
609521 28783
579100 580773
975566 903142
411642 345503
423630 459556
408056 246002
95146 289765
704283 398819
615779 574812
666269 788443
599861 874937
520982 81334
139758 229586
252962 164322
612347 111179
811750 438219
339451 297111
159795 542296
47782 654291
951652 630828
749599 62890
901646 262116
37457 565245
334977 925226
162487 32564
791736 106526
292750 174814
319854 7224
528880 886913
698289 156269
801514 355894
60330 642201
36542 779850
83300 155273
606525 630987
311364 545520
776305 575562
21122 194945
598659 904648
410216 536197
41249 5771
173157 901297
357031 253543
899593 833914
12331 406421
240243 980137
937800 307415
468481 673465
790116 227077
853671 655764
104169 549627
738646 439212
289784 813596
466092 341257
454143 706257
623253 976679
184255 5772
603045 250322
465627 17008
486843 130655
893639 458307
222062 587818
434338 912488
689035 520467
838373 751055
400099 634043
679694 382418
426588 414965
845575 174247
27836 718206
880287 562901
486126 867113
738229 47914
61262 406538
764314 101541
699729 429224
171736 413469
692421 221998
890869 611634
652929 293761
908724 386940
205223 521522
630899 168983
419818 374005
717902 964322
675596 377358
722718 161504
496249 962147
751747 106309
859280 314544
855922 535928
323095 558852
979414 946748
210850 738891
262910 158799
983407 859769
368334 292046
465185 47791
99497 996970
69097 163379
706894 26397
160631 862652
573479 645960
617204 902911
918217 776677
556182 222794
430488 482842
370449 124716
53436 250920
533762 500536
223414 774816
247037 694545
756486 574087
477175 900392
955789 563633
87819 581347
152686 914967
959812 441329
804682 183406
911628 209023
674364 563869
764638 319226
17823 497660
166859 571639
440831 376408
371591 758197
720404 350935
385325 203333
809864 762111
302529 690181
459512 130494
119539 236891
755997 430999
393047 115765
477321 138234
815644 76998
357356 34112
525327 102440
930710 350971
401652 897054
609125 990589
