572977 73589
999031 835514
422754 964991
509546 240748
847780 108622
827944 666554
649300 729833
734312 951119
924640 938867
390818 40978
935635 942585
970671 43991
102115 173606
334791 853351
838963 721461
414242 737630
93030 649229
616610 121561
138928 226067
525866 199768
311671 835746
815523 959624
522998 682451
705124 571744
448006 999860
665251 242875
968881 196319
401690 654252
779578 6373
633348 489489
249673 162961
488204 339662
537401 945527
172954 337768
511242 4347
270972 441463
919273 363032
486103 484600
596591 925362
557776 420060
344233 106995
872419 419007
451991 337353
697575 796660
269066 955365
401970 162455
410857 957977
827224 346453
800814 982346
761038 95213
941085 45908
346734 881162
428450 693352
653454 905316
653971 503258
570032 755082
18056 27337
133056 765025
803464 869150
497386 903988
520243 574580
712846 339827
355184 162351
66243 756926
657732 564001
168095 238226
677670 577434
82023 427026
466715 645216
656651 556651
364739 993860
792402 655350
700188 453311
449579 117529
146288 969883
793271 883590
57711 149590
254291 696777
148480 764991
70165 958332
103785 784320
913176 507990
786483 349279
821433 94361
182347 647627
273778 957382
116039 687977
223759 782029
208510 737889
81308 686477
246312 432259
682789 491623
163478 536300
707848 472166
205624 393289
590133 397
829565 470082
224990 818930
722599 89161
558241 558684
964095 730143
573525 725138
440672 827339
155069 876326
481997 924817
215245 338048
969062 86090
285689 94672
654708 52919
477192 542787
842380 920356
853177 75933
380550 217401
812968 725768
857643 895135
335599 363146
120722 365485
757688 776632
855993 100155
40841 884404
956762 264958
981493 359431
161985 134767
904091 990436
833761 621957
582435 348369
244745 254694
448937 425903
887330 303057
433496 78145
622917 186989
590933 909751
926472 586917
534019 857040
174166 257465
55051 415760
469338 146316
175417 57952
390558 67031
802722 362692
574857 994975
778581 841785
245753 287632
19817 278337
868027 404182
232717 845685
464235 595665
655048 380922
412803 526702
93252 597490
598947 90187
698940 394603
917547 303275
113728 290302
87201 568540
101517 123664
39259 62579
822841 170798
836523 825354
351070 913816
380036 44309
208229 55236
70378 269372
721077 741118
369166 481221
620992 994883
782222 75664
113555 127079
299279 477635
439406 823680
809875 271734
41773 583715
575844 140631
265610 825839
715066 283154
357254 435287
317193 511426
572506 400684
463503 837505
854362 246590
602685 966327
612907 520064
619778 628696
517001 807139
383187 235600
235378 832318
723388 829521
599549 233675
613782 440032
232336 384209
470150 698050
243778 595749
662122 758361
833967 245549
537920 374342
998953 710858
582018 335308
569662 631405
957886 1924
163209 797455
455882 501911
212901 399447
788213 949763
975612 822710
355146 561617
391822 464174
665967 568781
413040 124100
564898 754655
39661 725079
633414 896387
639730 517961
895330 683031
441013 353213
33468 290718
700041 367533
464369 430545
255370 286857
246421 73949
158525 655098
