572977 73589 470
999031 835514 525
422754 964991 525
509546 240748 449
847780 108622 525
827944 666554 504
649300 729833 504
734312 951119 525
924640 938867 476
390818 40978 443
935635 942585 507
970671 43991 525
102115 173606 383
334791 853351 525
838963 721461 525
414242 737630 509
93030 649229 509
616610 121561 470
138928 226067 386
525866 199768 470
311671 835746 509
815523 959624 525
522998 682451 509
705124 571744 509
448006 999860 525
665251 242875 509
968881 196319 525
401690 654252 509
779578 6373 509
633348 489489 509
249673 162961 443
488204 339662 449
537401 945527 525
172954 337768 443
511242 4347 449
270972 441463 449
919273 363032 525
486103 484600 338
596591 925362 525
557776 420060 470
344233 106995 443
872419 419007 525
451991 337353 449
697575 796660 504
269066 955365 525
401970 162455 443
410857 957977 525
827224 346453 509
800814 982346 525
761038 95213 509
941085 45908 525
346734 881162 525
428450 693352 509
653454 905316 525
653971 503258 509
570032 755082 509
18056 27337 308
133056 765025 509
803464 869150 525
497386 903988 525
520243 574580 452
712846 339827 509
355184 162351 443
66243 756926 509
657732 564001 509
168095 238226 443
677670 577434 509
82023 427026 449
466715 645216 509
656651 556651 509
364739 993860 525
792402 655350 504
700188 453311 509
449579 117529 449
146288 969883 525
793271 883590 525
57711 149590 375
254291 696777 509
148480 764991 509
70165 958332 525
103785 784320 509
913176 507990 525
786483 349279 509
821433 94361 509
182347 647627 509
273778 957382 525
116039 687977 509
223759 782029 509
208510 737889 509
81308 686477 509
246312 432259 449
682789 491623 509
163478 536300 470
707848 472166 509
205624 393289 443
590133 397 470
829565 470082 509
224990 818930 509
722599 89161 509
558241 558684 284
964095 730143 525
573525 725138 509
440672 827339 509
155069 876326 525
481997 924817 525
215245 338048 443
969062 86090 525
285689 94672 443
654708 52919 509
477192 542787 470
842380 920356 476
853177 75933 525
380550 217401 443
812968 725768 468
857643 895135 445
335599 363146 441
120722 365485 443
757688 776632 468
855993 100155 525
40841 884404 525
956762 264958 525
981493 359431 525
161985 134767 383
904091 990436 507
833761 621957 509
582435 348369 470
244745 254694 350
448937 425903 400
887330 303057 525
433496 78145 449
622917 186989 470
590933 909751 525
926472 586917 525
534019 857040 525
174166 257465 443
55051 415760 449
469338 146316 449
175417 57952 383
390558 67031 443
802722 362692 509
574857 994975 525
778581 841785 525
245753 287632 407
19817 278337 443
868027 404182 525
232717 845685 525
464235 595665 470
655048 380922 509
412803 526702 470
93252 597490 470
598947 90187 470
698940 394603 509
917547 303275 525
113728 290302 443
87201 568540 470
101517 123664 354
39259 62579 340
822841 170798 509
836523 825354 419
351070 913816 525
380036 44309 443
208229 55236 383
70378 269372 443
721077 741118 424
369166 481221 449
620992 994883 525
782222 75664 509
113555 127079 349
299279 477635 449
439406 823680 509
809875 271734 509
41773 583715 470
575844 140631 470
265610 825839 509
715066 283154 509
357254 435287 449
317193 511426 449
572506 400684 470
463503 837505 509
854362 246590 525
602685 966327 525
612907 520064 452
619778 628696 509
517001 807139 509
383187 235600 441
235378 832318 509
723388 829521 468
599549 233675 470
613782 440032 470
232336 384209 441
470150 698050 509
243778 595749 470
662122 758361 504
833967 245549 509
537920 374342 470
998953 710858 525
582018 335308 470
569662 631405 509
957886 1924 525
163209 797455 509
455882 501911 444
212901 399447 443
788213 949763 525
975612 822710 525
355146 561617 470
391822 464174 449
665967 568781 509
413040 124100 449
564898 754655 509
39661 725079 509
633414 896387 525
639730 517961 509
895330 683031 525
441013 353213 449
33468 290718 443
700041 367533 509
464369 430545 444
255370 286857 407
246421 73949 443
158525 655098 509
